^C:\USERS\ADMINISTRATOR\DESKTOP\2014105075\DS 03\5\5.C
C:\USERS\ADMINISTRATOR\DESKTOP\2014105075\DS 03\5\DEBUG\VC120.PDB
C:\USERS\ADMINISTRATOR\DESKTOP\2014105075\DS 03\5\DEBUG\VC120.IDB
C:\USERS\ADMINISTRATOR\DESKTOP\2014105075\DS 03\5\DEBUG\5.OBJ
