^C:\USERS\HAM\DESKTOP\2014105082_\DS04\1-\1.C
C:\USERS\HAM\DESKTOP\2014105082_\DS04\1-\DEBUG\VC120.PDB
C:\USERS\HAM\DESKTOP\2014105082_\DS04\1-\DEBUG\VC120.IDB
C:\USERS\HAM\DESKTOP\2014105082_\DS04\1-\DEBUG\1.OBJ
