^C:\USERS\ADMINISTRATOR\DESKTOP\DS 24\1\1.CPP
C:\USERS\ADMINISTRATOR\DESKTOP\DS 24\1\DEBUG\VC120.PDB
C:\USERS\ADMINISTRATOR\DESKTOP\DS 24\1\DEBUG\VC120.IDB
C:\USERS\ADMINISTRATOR\DESKTOP\DS 24\1\DEBUG\1.OBJ
