^C:\USERS\우용\DESKTOP\DS 07\3\DEBUG\3.OBJ
/OUT:"C:\USERS\우용\DESKTOP\DS 07\DEBUG\3.EXE" /INCREMENTAL /NOLOGO kernel32.lib user32.lib gdi32.lib winspool.lib comdlg32.lib advapi32.lib shell32.lib ole32.lib oleaut32.lib uuid.lib odbc32.lib odbccp32.lib /MANIFEST /MANIFESTUAC:"level='asInvoker' uiAccess='false'" /manifest:embed /DEBUG /PDB:"C:\USERS\우용\DESKTOP\DS 07\DEBUG\3.PDB" /SUBSYSTEM:CONSOLE /TLBID:1 /DYNAMICBASE /NXCOMPAT /IMPLIB:"C:\USERS\우용\DESKTOP\DS 07\DEBUG\3.LIB" /MACHINE:X86 DEBUG\3.OBJ
^C:\USERS\우용\DESKTOP\2014105093\DS 07\3\DEBUG\3.OBJ
/OUT:"C:\USERS\우용\DESKTOP\2014105093\DS 07\DEBUG\3.EXE" /INCREMENTAL /NOLOGO kernel32.lib user32.lib gdi32.lib winspool.lib comdlg32.lib advapi32.lib shell32.lib ole32.lib oleaut32.lib uuid.lib odbc32.lib odbccp32.lib /MANIFEST /MANIFESTUAC:"level='asInvoker' uiAccess='false'" /manifest:embed /DEBUG /PDB:"C:\USERS\우용\DESKTOP\2014105093\DS 07\DEBUG\3.PDB" /SUBSYSTEM:CONSOLE /TLBID:1 /DYNAMICBASE /NXCOMPAT /IMPLIB:"C:\USERS\우용\DESKTOP\2014105093\DS 07\DEBUG\3.LIB" /MACHINE:X86 DEBUG\3.OBJ
