^C:\USERS\우용\DESKTOP\2014105093\DS 07\1\1.C
C:\USERS\우용\DESKTOP\2014105093\DS 07\1\DEBUG\VC120.PDB
C:\USERS\우용\DESKTOP\2014105093\DS 07\1\DEBUG\VC120.IDB
C:\USERS\우용\DESKTOP\2014105093\DS 07\1\DEBUG\1.OBJ
