^C:\USERS\HAM\DESKTOP\2014105080\DS 06\2\DEBUG\2.OBJ
C:\USERS\HAM\DESKTOP\2014105080\DS 06\DEBUG\2.ILK
C:\USERS\HAM\DESKTOP\2014105080\DS 06\DEBUG\2.EXE
C:\USERS\HAM\DESKTOP\2014105080\DS 06\DEBUG\2.PDB
