^C:\USERS\JOHJ\DOCUMENTS\VISUAL STUDIO 2013\PROJECTS\DS 14\1\1.C
C:\USERS\JOHJ\DOCUMENTS\VISUAL STUDIO 2013\PROJECTS\DS 14\1\DEBUG\VC120.PDB
C:\USERS\JOHJ\DOCUMENTS\VISUAL STUDIO 2013\PROJECTS\DS 14\1\DEBUG\VC120.IDB
C:\USERS\JOHJ\DOCUMENTS\VISUAL STUDIO 2013\PROJECTS\DS 14\1\DEBUG\1.OBJ
