^C:\USERS\2014105075\DOCUMENTS\VISUAL STUDIO 2010\PROJECTS\DS 19\2\2.C
C:\USERS\2014105075\DOCUMENTS\VISUAL STUDIO 2010\PROJECTS\DS 19\2\DEBUG\2.OBJ
C:\USERS\2014105075\DOCUMENTS\VISUAL STUDIO 2010\PROJECTS\DS 19\2\DEBUG\VC100.PDB
^F:\자료구조\소스\DS 19\2\2.C
F:\자료구조\소스\DS 19\2\DEBUG\2.OBJ
F:\자료구조\소스\DS 19\2\DEBUG\VC100.PDB
