^C:\USERS\2014105075\DOCUMENTS\VISUAL STUDIO 2010\PROJECTS\DS 19\2\DEBUG\2_MANIFEST.RC
/nologo /fo"Debug\2.exe.embed.manifest.res" Debug\2_manifest.rc /nologo /fo"Debug\2.exe.embed.manifest.res" C:\USERS\2014105075\DOCUMENTS\VISUAL STUDIO 2010\PROJECTS\DS 19\2\DEBUG\2_MANIFEST.RC
^F:\자료구조\소스\DS 19\2\DEBUG\2_MANIFEST.RC
/nologo /fo"Debug\2.exe.embed.manifest.res" Debug\2_manifest.rc /nologo /fo"Debug\2.exe.embed.manifest.res" F:\자료구조\소스\DS 19\2\DEBUG\2_MANIFEST.RC
