^C:\USERS\2014105075\DOCUMENTS\VISUAL STUDIO 2010\PROJECTS\DS 19\2\DEBUG\2_MANIFEST.RC
C:\USERS\2014105075\DOCUMENTS\VISUAL STUDIO 2010\PROJECTS\DS 19\2\DEBUG\2.EXE.EMBED.MANIFEST
^F:\자료구조\소스\DS 19\2\DEBUG\2_MANIFEST.RC
F:\자료구조\소스\DS 19\2\DEBUG\2.EXE.EMBED.MANIFEST
