^C:\USERS\ADMINISTRATOR\DESKTOP\DS 09\1\DEBUG\1.OBJ
C:\USERS\ADMINISTRATOR\DESKTOP\DS 09\DEBUG\1.ILK
C:\USERS\ADMINISTRATOR\DESKTOP\DS 09\DEBUG\1.EXE
C:\USERS\ADMINISTRATOR\DESKTOP\DS 09\DEBUG\1.PDB
