^C:\USERS\ADMINISTRATOR\DESKTOP\2014105075\DS 03\3\3.C
C:\USERS\ADMINISTRATOR\DESKTOP\2014105075\DS 03\3\DEBUG\VC120.PDB
C:\USERS\ADMINISTRATOR\DESKTOP\2014105075\DS 03\3\DEBUG\VC120.IDB
C:\USERS\ADMINISTRATOR\DESKTOP\2014105075\DS 03\3\DEBUG\3.OBJ
