^C:\USERS\2014105082\DOCUMENTS\VISUAL STUDIO 2010\PROJECTS\DS 12\1\1.C
C:\USERS\2014105082\DOCUMENTS\VISUAL STUDIO 2010\PROJECTS\DS 12\1\DEBUG\1.OBJ
C:\USERS\2014105082\DOCUMENTS\VISUAL STUDIO 2010\PROJECTS\DS 12\1\DEBUG\VC100.PDB
