^C:\USERS\ADMINISTRATOR\DESKTOP\2014105075\DS 02\3-1\DEBUG\3-1.OBJ|C:\USERS\ADMINISTRATOR\DESKTOP\2014105075\DS 02\3-1\DEBUG\SELECTIONSORT.OBJ
C:\USERS\ADMINISTRATOR\DESKTOP\2014105075\DS 02\DEBUG\3-1.ILK
C:\USERS\ADMINISTRATOR\DESKTOP\2014105075\DS 02\DEBUG\3-1.EXE
C:\USERS\ADMINISTRATOR\DESKTOP\2014105075\DS 02\DEBUG\3-1.PDB
