^C:\USERS\ADMINISTRATOR\DESKTOP\2014105075\DS 03\2\DEBUG\2.OBJ
C:\USERS\ADMINISTRATOR\DESKTOP\2014105075\DS 03\DEBUG\2.ILK
C:\USERS\ADMINISTRATOR\DESKTOP\2014105075\DS 03\DEBUG\2.EXE
C:\USERS\ADMINISTRATOR\DESKTOP\2014105075\DS 03\DEBUG\2.PDB
