^C:\USERS\BASIC\DESKTOP\DS 13\1\1.C
C:\USERS\BASIC\DESKTOP\DS 13\1\DEBUG\1.OBJ
C:\USERS\BASIC\DESKTOP\DS 13\1\DEBUG\VC100.PDB
^C:\USERS\2014105075\DOWNLOADS\DESKTOP\DS 13\1\1.C
C:\USERS\2014105075\DOWNLOADS\DESKTOP\DS 13\1\DEBUG\1.OBJ
C:\USERS\2014105075\DOWNLOADS\DESKTOP\DS 13\1\DEBUG\VC100.PDB
