^C:\USERS\우용\DESKTOP\2014105093\DS 07\4\DEBUG\4.OBJ
C:\USERS\우용\DESKTOP\2014105093\DS 07\DEBUG\4.ILK
C:\USERS\우용\DESKTOP\2014105093\DS 07\DEBUG\4.EXE
C:\USERS\우용\DESKTOP\2014105093\DS 07\DEBUG\4.PDB
