^C:\USERS\2014105075\DOCUMENTS\VISUAL STUDIO 2010\PROJECTS\DS 05\1\DEBUG\1.EXE.EMBED.MANIFEST.RES|C:\USERS\2014105075\DOCUMENTS\VISUAL STUDIO 2010\PROJECTS\DS 05\1\DEBUG\1.OBJ
C:\USERS\2014105075\DOCUMENTS\VISUAL STUDIO 2010\PROJECTS\DS 05\DEBUG\1.ILK
C:\USERS\2014105075\DOCUMENTS\VISUAL STUDIO 2010\PROJECTS\DS 05\DEBUG\1.EXE
C:\USERS\2014105075\DOCUMENTS\VISUAL STUDIO 2010\PROJECTS\DS 05\1\DEBUG\1.EXE.INTERMEDIATE.MANIFEST
C:\USERS\2014105075\DOCUMENTS\VISUAL STUDIO 2010\PROJECTS\DS 05\DEBUG\1.PDB
