^C:\USERS\HAM\DESKTOP\2014105080\DS 06\1\DEBUG\1.OBJ
C:\USERS\HAM\DESKTOP\2014105080\DS 06\DEBUG\1.ILK
C:\USERS\HAM\DESKTOP\2014105080\DS 06\DEBUG\1.EXE
C:\USERS\HAM\DESKTOP\2014105080\DS 06\DEBUG\1.PDB
