^C:\USERS\ADMINISTRATOR\DESKTOP\2014105080 장진화\2014105080\DS 06\1\DEBUG\1.OBJ
/OUT:"C:\USERS\ADMINISTRATOR\DESKTOP\2014105080 장진화\2014105080\DS 06\DEBUG\1.EXE" /INCREMENTAL /NOLOGO kernel32.lib user32.lib gdi32.lib winspool.lib comdlg32.lib advapi32.lib shell32.lib ole32.lib oleaut32.lib uuid.lib odbc32.lib odbccp32.lib /MANIFEST /MANIFESTUAC:"level='asInvoker' uiAccess='false'" /manifest:embed /DEBUG /PDB:"C:\USERS\ADMINISTRATOR\DESKTOP\2014105080 장진화\2014105080\DS 06\DEBUG\1.PDB" /SUBSYSTEM:CONSOLE /TLBID:1 /DYNAMICBASE /NXCOMPAT /IMPLIB:"C:\USERS\ADMINISTRATOR\DESKTOP\2014105080 장진화\2014105080\DS 06\DEBUG\1.LIB" /MACHINE:X86 DEBUG\1.OBJ
^C:\USERS\HAM\DESKTOP\2014105080\DS 06\1\DEBUG\1.OBJ
/OUT:"C:\USERS\HAM\DESKTOP\2014105080\DS 06\DEBUG\1.EXE" /INCREMENTAL /NOLOGO kernel32.lib user32.lib gdi32.lib winspool.lib comdlg32.lib advapi32.lib shell32.lib ole32.lib oleaut32.lib uuid.lib odbc32.lib odbccp32.lib /MANIFEST /MANIFESTUAC:"level='asInvoker' uiAccess='false'" /manifest:embed /DEBUG /PDB:"C:\USERS\HAM\DESKTOP\2014105080\DS 06\DEBUG\1.PDB" /SUBSYSTEM:CONSOLE /TLBID:1 /DYNAMICBASE /NXCOMPAT /IMPLIB:"C:\USERS\HAM\DESKTOP\2014105080\DS 06\DEBUG\1.LIB" /MACHINE:X86 DEBUG\1.OBJ
