^C:\USERS\HAM\DESKTOP\2014105082_\DS04\3\3.C
C:\USERS\HAM\DESKTOP\2014105082_\DS04\3\DEBUG\VC120.PDB
C:\USERS\HAM\DESKTOP\2014105082_\DS04\3\DEBUG\VC120.IDB
C:\USERS\HAM\DESKTOP\2014105082_\DS04\3\DEBUG\3.OBJ
