^C:\USERS\HAM\DESKTOP\2014105082_\DS04\3\DEBUG\3.OBJ
C:\USERS\HAM\DESKTOP\2014105082_\DS04\DEBUG\3.ILK
C:\USERS\HAM\DESKTOP\2014105082_\DS04\DEBUG\3.EXE
C:\USERS\HAM\DESKTOP\2014105082_\DS04\DEBUG\3.PDB
