^C:\USERS\2014105075\DOCUMENTS\VISUAL STUDIO 2010\PROJECTS\DS 19\3\DEBUG\3_MANIFEST.RC
C:\USERS\2014105075\DOCUMENTS\VISUAL STUDIO 2010\PROJECTS\DS 19\3\DEBUG\3.EXE.EMBED.MANIFEST.RES
^F:\자료구조\소스\DS 19\3\DEBUG\3_MANIFEST.RC
F:\자료구조\소스\DS 19\3\DEBUG\3.EXE.EMBED.MANIFEST.RES
