^C:\USERS\2014105075\DOCUMENTS\VISUAL STUDIO 2010\PROJECTS\DS 05\2\DEBUG\2.EXE.EMBED.MANIFEST.RES|C:\USERS\2014105075\DOCUMENTS\VISUAL STUDIO 2010\PROJECTS\DS 05\2\DEBUG\2.OBJ
/ERRORREPORT:PROMPT /OUT:"c:\users\2014105075\documents\visual studio 2010\Projects\DS 05\Debug\2.exe" /INCREMENTAL /NOLOGO kernel32.lib user32.lib gdi32.lib winspool.lib comdlg32.lib advapi32.lib shell32.lib ole32.lib oleaut32.lib uuid.lib odbc32.lib odbccp32.lib /MANIFEST /ManifestFile:"Debug\2.exe.intermediate.manifest" /MANIFESTUAC:"level='asInvoker' uiAccess='false'" /DEBUG /PDB:"c:\users\2014105075\documents\visual studio 2010\Projects\DS 05\Debug\2.pdb" /SUBSYSTEM:CONSOLE /TLBID:1 /DYNAMICBASE /NXCOMPAT /IMPLIB:"c:\users\2014105075\documents\visual studio 2010\Projects\DS 05\Debug\2.lib" /MACHINE:X86 Debug\2.exe.embed.manifest.res
Debug\2.obj
