^C:\USERS\JIWON\DESKTOP\DESKTOP\DS 13\2\DEBUG\2.OBJ
C:\USERS\JIWON\DESKTOP\DESKTOP\DS 13\DEBUG\2.ILK
C:\USERS\JIWON\DESKTOP\DESKTOP\DS 13\DEBUG\2.EXE
C:\USERS\JIWON\DESKTOP\DESKTOP\DS 13\DEBUG\2.PDB
