^C:\USERS\ADMINISTRATOR\DESKTOP\CG\자구\실습\2014105077\DS 08\1\1.C
C:\USERS\ADMINISTRATOR\DESKTOP\CG\자구\실습\2014105077\DS 08\1\DEBUG\VC120.PDB
C:\USERS\ADMINISTRATOR\DESKTOP\CG\자구\실습\2014105077\DS 08\1\DEBUG\VC120.IDB
C:\USERS\ADMINISTRATOR\DESKTOP\CG\자구\실습\2014105077\DS 08\1\DEBUG\1.OBJ
