^C:\USERS\2014105075\DOCUMENTS\VISUAL STUDIO 2010\PROJECTS\DS 20\1\1.C
C:\USERS\2014105075\DOCUMENTS\VISUAL STUDIO 2010\PROJECTS\DS 20\1\DEBUG\1.OBJ
C:\USERS\2014105075\DOCUMENTS\VISUAL STUDIO 2010\PROJECTS\DS 20\1\DEBUG\VC100.PDB
^C:\USERS\2014105075\DESKTOP\DS 20\1\1.C
C:\USERS\2014105075\DESKTOP\DS 20\1\DEBUG\1.OBJ
C:\USERS\2014105075\DESKTOP\DS 20\1\DEBUG\VC100.PDB
