^C:\USERS\ADMINISTRATOR\DESKTOP\DS 16\2\2.C
C:\USERS\ADMINISTRATOR\DESKTOP\DS 16\2\DEBUG\VC120.PDB
C:\USERS\ADMINISTRATOR\DESKTOP\DS 16\2\DEBUG\VC120.IDB
C:\USERS\ADMINISTRATOR\DESKTOP\DS 16\2\DEBUG\2.OBJ
