^C:\USERS\ADMINISTRATOR\DESKTOP\DS 16\2\DEBUG\2.OBJ
C:\USERS\ADMINISTRATOR\DESKTOP\DS 16\DEBUG\2.ILK
C:\USERS\ADMINISTRATOR\DESKTOP\DS 16\DEBUG\2.EXE
C:\USERS\ADMINISTRATOR\DESKTOP\DS 16\DEBUG\2.PDB
