^C:\USERS\2014105075\DOCUMENTS\VISUAL STUDIO 2010\PROJECTS\DS 19\1\1.C
/c /ZI /nologo /W3 /WX- /Od /Oy- /D WIN32 /D _DEBUG /D _CONSOLE /D _UNICODE /D UNICODE /Gm /EHsc /RTC1 /MDd /GS /fp:precise /Zc:wchar_t /Zc:forScope /Fo"Debug\\" /Fd"Debug\vc100.pdb" /Gd /TC /analyze- /errorReport:prompt C:\USERS\2014105075\DOCUMENTS\VISUAL STUDIO 2010\PROJECTS\DS 19\1\1.C
^F:\자료구조\소스\DS 19\1\1.C
/c /ZI /nologo /W3 /WX- /Od /Oy- /D WIN32 /D _DEBUG /D _CONSOLE /D _UNICODE /D UNICODE /Gm /EHsc /RTC1 /MDd /GS /fp:precise /Zc:wchar_t /Zc:forScope /Fo"Debug\\" /Fd"Debug\vc100.pdb" /Gd /TC /analyze- /errorReport:prompt F:\자료구조\소스\DS 19\1\1.C
