^C:\USERS\2014105075\DOCUMENTS\VISUAL STUDIO 2010\PROJECTS\DS 19\1\DEBUG\1.EXE.INTERMEDIATE.MANIFEST
/nologo /verbose /out:"Debug\1.exe.embed.manifest" /manifest Debug\1.exe.intermediate.manifest
^F:\자료구조\소스\DS 19\1\DEBUG\1.EXE.INTERMEDIATE.MANIFEST
/nologo /verbose /out:"Debug\1.exe.embed.manifest" /manifest Debug\1.exe.intermediate.manifest
