^C:\USERS\우용\DESKTOP\2014105093\DS 07\2\DEBUG\2.OBJ
C:\USERS\우용\DESKTOP\2014105093\DS 07\DEBUG\2.ILK
C:\USERS\우용\DESKTOP\2014105093\DS 07\DEBUG\2.EXE
C:\USERS\우용\DESKTOP\2014105093\DS 07\DEBUG\2.PDB
