^C:\USERS\BASIC\DESKTOP\DS 13\2\DEBUG\2.EXE.INTERMEDIATE.MANIFEST
C:\USERS\BASIC\DESKTOP\DS 13\2\DEBUG\2.EXE.EMBED.MANIFEST
^C:\USERS\2014105075\DOWNLOADS\DESKTOP\DS 13\2\DEBUG\2.EXE.INTERMEDIATE.MANIFEST
C:\USERS\2014105075\DOWNLOADS\DESKTOP\DS 13\2\DEBUG\2.EXE.EMBED.MANIFEST
