^C:\USERS\2014105075\DOCUMENTS\VISUAL STUDIO 2010\PROJECTS\DS 05\3\DEBUG\3.EXE.EMBED.MANIFEST.RES|C:\USERS\2014105075\DOCUMENTS\VISUAL STUDIO 2010\PROJECTS\DS 05\3\DEBUG\3.OBJ
C:\USERS\2014105075\DOCUMENTS\VISUAL STUDIO 2010\PROJECTS\DS 05\DEBUG\3.ILK
C:\USERS\2014105075\DOCUMENTS\VISUAL STUDIO 2010\PROJECTS\DS 05\DEBUG\3.EXE
C:\USERS\2014105075\DOCUMENTS\VISUAL STUDIO 2010\PROJECTS\DS 05\3\DEBUG\3.EXE.INTERMEDIATE.MANIFEST
C:\USERS\2014105075\DOCUMENTS\VISUAL STUDIO 2010\PROJECTS\DS 05\DEBUG\3.PDB
