^C:\USERS\ADMINISTRATOR\DESKTOP\2014105075\DS 02\2\2.C
/c /ZI /nologo /W3 /WX- /sdl /Od /Oy- /D WIN32 /D _DEBUG /D _CONSOLE /D _LIB /D _UNICODE /D UNICODE /Gm /EHsc /RTC1 /MDd /GS /fp:precise /Zc:wchar_t /Zc:forScope /Fo"DEBUG\\" /Fd"DEBUG\VC120.PDB" /Gd /TC /analyze- C:\USERS\ADMINISTRATOR\DESKTOP\2014105075\DS 02\2\2.C
^C:\USERS\ADMINISTRATOR\DESKTOP\2014105075\DS 02\2\SELECTIONSORT.C
/c /ZI /nologo /W3 /WX- /sdl /Od /Oy- /D WIN32 /D _DEBUG /D _CONSOLE /D _LIB /D _UNICODE /D UNICODE /Gm /EHsc /RTC1 /MDd /GS /fp:precise /Zc:wchar_t /Zc:forScope /Fo"DEBUG\\" /Fd"DEBUG\VC120.PDB" /Gd /TC /analyze- C:\USERS\ADMINISTRATOR\DESKTOP\2014105075\DS 02\2\SELECTIONSORT.C
