c:\users\우용\desktop\ds 07\4\debug\vc120.pdb
c:\users\우용\desktop\ds 07\4\debug\vc120.idb
c:\users\우용\desktop\ds 07\4\debug\4.obj
c:\users\우용\desktop\ds 07\debug\4.ilk
c:\users\우용\desktop\ds 07\debug\4.exe
c:\users\우용\desktop\ds 07\debug\4.pdb
c:\users\우용\desktop\ds 07\4\debug\4.tlog\cl.command.1.tlog
c:\users\우용\desktop\ds 07\4\debug\4.tlog\cl.read.1.tlog
c:\users\우용\desktop\ds 07\4\debug\4.tlog\cl.write.1.tlog
c:\users\우용\desktop\ds 07\4\debug\4.tlog\link.command.1.tlog
c:\users\우용\desktop\ds 07\4\debug\4.tlog\link.read.1.tlog
c:\users\우용\desktop\ds 07\4\debug\4.tlog\link.write.1.tlog
