^C:\USERS\JIWON\DESKTOP\DESKTOP\DS 13\1\1.C
C:\USERS\JIWON\DESKTOP\DESKTOP\DS 13\1\DEBUG\VC120.PDB
C:\USERS\JIWON\DESKTOP\DESKTOP\DS 13\1\DEBUG\VC120.IDB
C:\USERS\JIWON\DESKTOP\DESKTOP\DS 13\1\DEBUG\1.OBJ
